# Blender v2.82 (sub 7) OBJ File: 'roughcar.blend'
# www.blender.org
mtllib aircraft.mtl
o Cube.005_Cube.006
v -4.597930 -0.625632 -0.374987
v -4.668842 0.712169 -0.487365
v -4.470929 -0.495042 -2.151536
v -4.541471 0.584797 -2.262865
v -3.246880 -0.429817 3.858685
v -2.892857 0.712169 1.181091
v -2.885635 -0.613025 1.279234
v -3.645480 0.139044 -4.432356
v -4.176143 -0.187575 -3.731656
v -4.230178 0.273505 -3.841994
v -3.645480 -0.131210 -4.432356
v -3.505800 0.378716 4.861659
v -3.916219 -0.131210 -4.432356
v -3.916219 0.139044 -4.432356
v -3.331521 0.273505 -3.841994
v -3.505800 -0.170896 4.861659
v -4.676064 -0.613025 1.279234
v -4.668842 0.712169 1.181091
v -3.385556 -0.187575 -3.731655
v -3.020228 0.584797 -2.262865
v -4.314819 -0.429817 3.858685
v -3.773385 -0.609888 -2.620121
v -3.090770 -0.495042 -2.151536
v -2.892857 0.712169 -0.487365
v -4.055898 -0.170896 4.861659
v -4.055898 0.378716 4.861659
v -3.788314 -0.609888 -2.620121
v -4.412265 -0.433855 -2.612848
v -9.174391 0.021587 0.229499
v -4.770435 0.003917 -2.197593
v -2.963769 -0.625632 -0.374987
v -4.567633 -0.003297 -2.659384
v -4.350121 0.068148 -3.773473
v -4.365499 -0.308172 -2.630156
v -3.950553 0.030621 -4.431006
v -3.788314 -0.447348 -2.620915
v -4.936161 0.003917 1.246363
v -4.293370 0.013134 -3.767411
v -4.475535 0.103910 3.858685
v -4.650846 0.052871 -2.827029
v -4.138648 0.103910 4.861659
v -4.690979 0.052871 -2.670557
v -3.788314 -0.686800 -2.164721
v -3.781092 1.259165 -2.334664
v -3.788314 -0.847865 -0.389222
v -3.784250 1.154944 -0.715817
v -3.788314 -0.293160 -3.743850
v -3.781092 0.392303 -3.841993
v -3.781092 -0.166955 -4.432356
v -3.781092 0.174789 -4.432356
v -3.788314 -0.847865 1.279235
v -3.781092 0.947008 1.181091
v -3.781092 -0.571006 3.858685
v -3.781092 0.599328 3.793412
v -3.781092 -0.243592 4.861659
v -3.781092 0.451412 4.861659
v -3.781092 0.103910 4.861659
v -3.781092 0.003917 -4.728926
v -4.829364 0.358583 -0.422093
v -4.852845 -0.272769 -0.422093
v -4.936161 0.003917 0.998078
v -4.843566 0.311420 -1.825727
v -4.808366 0.428316 -1.057245
v -4.857759 -0.256449 -1.099928
v -4.876118 -0.195481 -1.874706
v -3.781092 0.433655 -3.676108
v -6.011351 0.008185 -2.188320
v -5.916271 0.323941 -0.607607
v -5.937176 -0.238146 -0.607607
v -6.011351 0.008185 0.656760
v -5.928915 0.281952 -1.857251
v -5.897576 0.386024 -1.173078
v -5.941551 -0.223617 -1.211077
v -5.957896 -0.169338 -1.900856
v -7.033845 0.010796 -2.054016
v -6.945932 0.302750 -0.592461
v -6.965261 -0.216967 -0.592461
v -7.033845 0.010796 0.576595
v -6.957623 0.263926 -1.747904
v -6.928647 0.360153 -1.115306
v -6.969307 -0.203532 -1.150441
v -6.984419 -0.153345 -1.788223
v -8.167617 0.015185 -1.633399
v -8.091753 0.267123 -0.372166
v -8.108433 -0.181360 -0.372166
v -8.167617 0.015185 0.636659
v -8.101841 0.233621 -1.369243
v -8.076838 0.316659 -0.823349
v -8.111924 -0.169767 -0.853668
v -8.124966 -0.126458 -1.404036
v -9.174391 0.021587 -0.739566
v -9.116100 0.215163 0.229499
v -9.128918 -0.129428 0.229499
v -9.174391 0.021587 1.004626
v -9.123852 0.189421 -0.536602
v -9.104641 0.253224 -0.117166
v -9.131599 -0.120520 -0.140462
v -9.141620 -0.087244 -0.563335
v -3.781092 0.947008 -0.071345
v -4.036368 0.879480 -0.487365
v -4.352589 0.634763 -2.262865
v -4.177580 0.573984 -2.692406
v -4.256372 0.757939 -1.185612
v -3.781092 0.956482 -3.175041
v -4.121471 1.051634 -2.256338
v -4.031986 1.117574 -1.358215
v -4.385430 0.223646 3.793412
v -4.090069 0.517593 3.793412
v -4.154932 0.298252 4.412761
v -4.517942 0.603890 2.294577
v -4.136800 0.661022 2.622867
v -4.589739 0.213480 2.572265
v -5.501841 1.637422 4.584327
v -4.547013 0.508145 3.748116
v -4.387662 0.666733 3.748116
v -4.422657 0.548396 4.082263
v -4.618505 0.713292 2.939476
v -4.412874 0.744115 3.116593
v -4.657240 0.502660 3.089293
v -5.314325 1.279587 4.048182
v -5.217720 1.375731 4.048182
v -5.238935 1.303989 4.250758
v -5.357667 1.403957 3.557948
v -5.233004 1.422643 3.665323
v -5.381150 1.276262 3.648773
v -5.507790 1.550543 4.454200
v -5.461543 1.596569 4.454200
v -5.471699 1.562225 4.551178
v -5.528539 1.610081 4.219514
v -5.468860 1.619027 4.270917
v -5.539781 1.548951 4.262994
v -3.149433 -0.433855 -2.612848
v 1.612692 0.021587 0.229499
v -2.791264 0.003917 -2.197593
v -2.994066 -0.003297 -2.659384
v -3.211578 0.068148 -3.773473
v -3.196200 -0.308172 -2.630156
v -3.611146 0.030621 -4.431005
v -3.773385 -0.447348 -2.620915
v -2.625538 0.003917 1.246363
v -3.268329 0.013134 -3.767411
v -3.086164 0.103910 3.858685
v -2.910853 0.052871 -2.827029
v -3.423051 0.103910 4.861659
v -2.870720 0.052871 -2.670557
v -3.773385 -0.686800 -2.164721
v -3.780607 1.259165 -2.334664
v -3.773385 -0.847865 -0.389222
v -3.777448 1.154944 -0.715817
v -3.773385 -0.293160 -3.743850
v -3.780607 0.392303 -3.841993
v -3.780607 -0.166955 -4.432356
v -3.780607 0.174789 -4.432356
v -3.773385 -0.847865 1.279235
v -3.780607 0.947008 1.181091
v -3.780607 -0.571006 3.858685
v -3.780607 0.599328 3.793412
v -3.780607 -0.243592 4.861659
v -3.780607 0.451412 4.861659
v -3.780607 0.103910 4.861659
v -3.780607 0.003917 -4.728926
v -2.732335 0.358583 -0.422093
v -2.708853 -0.272769 -0.422093
v -2.625538 0.003917 0.998078
v -2.718133 0.311420 -1.825727
v -2.753333 0.428316 -1.057245
v -2.703939 -0.256449 -1.099928
v -2.685581 -0.195481 -1.874706
v -3.780607 0.433655 -3.676107
v -1.550348 0.008185 -2.188320
v -1.645428 0.323941 -0.607607
v -1.624523 -0.238147 -0.607607
v -1.550348 0.008185 0.656760
v -1.632784 0.281952 -1.857251
v -1.664123 0.386024 -1.173078
v -1.620148 -0.223617 -1.211077
v -1.603803 -0.169338 -1.900856
v -0.527854 0.010796 -2.054016
v -0.615767 0.302750 -0.592461
v -0.596437 -0.216967 -0.592461
v -0.527854 0.010796 0.576595
v -0.604076 0.263926 -1.747904
v -0.633052 0.360153 -1.115306
v -0.592392 -0.203532 -1.150441
v -0.577280 -0.153345 -1.788223
v 0.605918 0.015185 -1.633399
v 0.530054 0.267123 -0.372166
v 0.546734 -0.181360 -0.372166
v 0.605918 0.015185 0.636659
v 0.540143 0.233621 -1.369243
v 0.515138 0.316659 -0.823349
v 0.550225 -0.169767 -0.853668
v 0.563266 -0.126458 -1.404036
v 1.612692 0.021587 -0.739566
v 1.554402 0.215163 0.229499
v 1.567218 -0.129428 0.229499
v 1.612692 0.021587 1.004626
v 1.562153 0.189421 -0.536602
v 1.542942 0.253224 -0.117166
v 1.569901 -0.120520 -0.140462
v 1.579921 -0.087244 -0.563335
v -3.780607 0.947008 -0.071345
v -3.525331 0.879480 -0.487365
v -3.209110 0.634763 -2.262865
v -3.384119 0.573984 -2.692406
v -3.305326 0.757939 -1.185611
v -3.780607 0.956482 -3.175041
v -3.440228 1.051634 -2.256338
v -3.529713 1.117574 -1.358215
v -3.176269 0.223646 3.793412
v -3.471629 0.517593 3.793412
v -3.406766 0.298252 4.412761
v -3.043757 0.603890 2.294577
v -3.424899 0.661022 2.622867
v -2.971960 0.213480 2.572265
v -2.059858 1.637422 4.584327
v -3.014686 0.508145 3.748116
v -3.174036 0.666733 3.748116
v -3.139042 0.548396 4.082263
v -2.943194 0.713292 2.939476
v -3.148824 0.744115 3.116593
v -2.904459 0.502660 3.089293
v -2.247374 1.279587 4.048182
v -2.343979 1.375731 4.048182
v -2.322764 1.303989 4.250758
v -2.204032 1.403957 3.557948
v -2.328695 1.422643 3.665323
v -2.180549 1.276262 3.648773
v -2.053909 1.550543 4.454200
v -2.100156 1.596569 4.454200
v -2.090000 1.562225 4.551178
v -2.033160 1.610081 4.219514
v -2.092839 1.619027 4.270917
v -2.021918 1.548951 4.262994
vt 0.461041 0.000000
vt 0.500000 0.000000
vt 0.500000 0.000000
vt 0.461041 0.000000
vt 0.250000 0.500000
vt 0.125000 0.500000
vt 0.125000 0.500000
vt 0.250000 0.500000
vt 0.625000 0.000000
vt 0.625000 0.000000
vt 0.559963 0.000000
vt 0.570081 0.000000
vt 0.500000 0.000000
vt 0.500000 0.000000
vt 0.750000 0.750000
vt 0.785944 0.750000
vt 0.750000 0.750000
vt 0.375000 0.875000
vt 0.375000 1.000000
vt 0.500000 1.000000
vt 0.500000 0.875000
vt 0.750000 0.500000
vt 0.805956 0.500000
vt 0.787554 0.656790
vt 0.875000 0.750000
vt 0.875000 0.750000
vt 0.822363 0.750000
vt 0.822363 0.750000
vt 0.375000 0.250000
vt 0.375000 0.375000
vt 0.500000 0.375000
vt 0.500000 0.250000
vt 0.500000 0.250000
vt 0.625000 0.250000
vt 0.625000 0.250000
vt 0.500000 0.250000
vt 0.500000 0.250000
vt 0.500000 0.250000
vt 0.750000 0.750000
vt 0.750000 0.750000
vt 0.875000 0.750000
vt 0.375000 0.000000
vt 0.375000 0.250000
vt 0.500000 0.250000
vt 0.471924 0.204536
vt 0.463339 0.095443
vt 0.461041 0.000000
vt 0.250000 0.500000
vt 0.125000 0.500000
vt 0.125000 0.500000
vt 0.250000 0.500000
vt 0.375000 0.250000
vt 0.500000 0.250000
vt 0.625000 0.250000
vt 0.500000 0.250000
vt 0.750000 0.750000
vt 0.875000 0.750000
vt 0.875000 0.750000
vt 0.814368 0.750000
vt 0.822363 0.750000
vt 0.750000 0.750000
vt 0.500000 0.000000
vt 0.375000 0.000000
vt 0.375000 0.000000
vt 0.559758 0.089433
vt 0.543298 0.197639
vt 0.543298 0.197639
vt 0.559758 0.089433
vt 0.625000 1.000000
vt 0.625000 0.875000
vt 0.375000 0.000000
vt 0.559758 0.089433
vt 0.559758 0.089433
vt 0.543298 0.197639
vt 0.543298 0.197639
vt 0.750000 0.750000
vt 0.814368 0.750000
vt 0.875000 0.750000
vt 0.875000 0.750000
vt 0.500000 0.000000
vt 0.375000 0.000000
vt 0.375000 0.000000
vt 0.500000 0.000000
vt 0.500000 0.875000
vt 0.625000 0.875000
vt 0.625000 1.000000
vt 0.500000 1.000000
vt 0.500000 0.250000
vt 0.625000 0.250000
vt 0.625000 0.250000
vt 0.375000 0.000000
vt 0.500000 0.000000
vt 0.875000 0.750000
vt 0.875000 0.750000
vt 0.750000 0.750000
vt 0.822363 0.750000
vt 0.875000 0.750000
vt 0.375000 0.875000
vt 0.375000 1.000000
vt 0.625000 0.000000
vt 0.570081 0.000000
vt 0.559963 0.000000
vt 0.625000 0.000000
vt 0.250000 0.500000
vt 0.250000 0.500000
vt 0.125000 0.500000
vt 0.125000 0.500000
vt 0.500000 0.250000
vt 0.625000 0.250000
vt 0.625000 0.000000
vt 0.549939 0.000000
vt 0.750000 0.500000
vt 0.750000 0.750000
vt 0.787554 0.656790
vt 0.805956 0.500000
vt 0.375000 0.250000
vt 0.466080 0.250000
vt 0.375000 0.250000
vt 0.750000 0.750000
vt 0.785944 0.750000
vt 0.375000 0.250000
vt 0.466080 0.250000
vt 0.375000 0.250000
vt 0.375000 0.250000
vt 0.625000 0.000000
vt 0.500000 0.000000
vt 0.549939 0.000000
vt 0.250000 0.500000
vt 0.250000 0.500000
vt 0.125000 0.500000
vt 0.125000 0.500000
vt 0.375000 0.000000
vt 0.463339 0.095443
vt 0.471924 0.204536
vt 0.500000 0.375000
vt 0.375000 0.375000
vt 0.472606 0.250000
vt 0.461041 0.000000
vt 0.500000 0.000000
vt 0.125000 0.750000
vt 0.250000 0.750000
vt 0.250000 0.750000
vt 0.125000 0.750000
vt 0.375000 0.250000
vt 0.125000 0.750000
vt 0.250000 0.750000
vt 0.125000 0.750000
vt 0.250000 0.750000
vt 0.875000 0.500000
vt 0.750000 0.500000
vt 0.750000 0.500000
vt 0.875000 0.500000
vt 0.625000 0.375000
vt 0.875000 0.500000
vt 0.843949 0.500000
vt 0.823377 0.500000
vt 0.750000 0.500000
vt 0.250000 0.500000
vt 0.125000 0.500000
vt 0.132031 0.500000
vt 0.500000 0.250000
vt 0.500000 0.250000
vt 0.543298 0.197639
vt 0.549939 0.000000
vt 0.463339 0.095443
vt 0.471924 0.204536
vt 0.559758 0.089433
vt 0.549939 0.000000
vt 0.461041 0.000000
vt 0.463339 0.095443
vt 0.471924 0.204536
vt 0.461041 0.000000
vt 0.463339 0.095443
vt 0.471924 0.204536
vt 0.500000 0.250000
vt 0.500000 0.000000
vt 0.500000 0.000000
vt 0.543298 0.197639
vt 0.559758 0.089433
vt 0.500000 0.000000
vt 0.461041 0.000000
vt 0.543298 0.197639
vt 0.559758 0.089433
vt 0.549939 0.000000
vt 0.549939 0.000000
vt 0.463339 0.095443
vt 0.471924 0.204536
vt 0.500000 0.000000
vt 0.500000 0.250000
vt 0.625000 0.000000
vt 0.559963 0.000000
vt 0.559963 0.000000
vt 0.625000 0.000000
vt 0.875000 0.750000
vt 0.750000 0.500000
vt 0.820930 0.651683
vt 0.625000 0.000000
vt 0.625000 0.000000
vt 0.625000 0.000000
vt 0.570081 0.000000
vt 0.814368 0.750000
vt 0.875000 0.750000
vt 0.875000 0.750000
vt 0.814368 0.750000
vt 0.570081 0.000000
vt 0.822363 0.750000
vt 0.875000 0.750000
vt 0.822363 0.750000
vt 0.875000 0.750000
vt 0.625000 0.000000
vt 0.625000 0.000000
vt 0.570081 0.000000
vt 0.814368 0.750000
vt 0.559963 0.000000
vt 0.625000 0.000000
vt 0.625000 0.000000
vt 0.875000 0.750000
vt 0.875000 0.750000
vt 0.472606 0.250000
vt 0.125000 0.750000
vt 0.125000 0.750000
vt 0.250000 0.750000
vt 0.250000 0.750000
vt 0.375000 0.250000
vt 0.125000 0.750000
vt 0.250000 0.750000
vt 0.125000 0.750000
vt 0.250000 0.750000
vt 0.875000 0.500000
vt 0.875000 0.500000
vt 0.750000 0.500000
vt 0.750000 0.500000
vt 0.625000 0.375000
vt 0.875000 0.500000
vt 0.750000 0.500000
vt 0.823377 0.500000
vt 0.843949 0.500000
vt 0.250000 0.500000
vt 0.125000 0.500000
vt 0.132031 0.500000
vt 0.543298 0.197639
vt 0.500000 0.250000
vt 0.500000 0.250000
vt 0.549939 0.000000
vt 0.471924 0.204536
vt 0.463339 0.095443
vt 0.549939 0.000000
vt 0.559758 0.089433
vt 0.463339 0.095443
vt 0.461041 0.000000
vt 0.471924 0.204536
vt 0.463339 0.095443
vt 0.461041 0.000000
vt 0.500000 0.250000
vt 0.471924 0.204536
vt 0.500000 0.000000
vt 0.500000 0.000000
vt 0.559758 0.089433
vt 0.543298 0.197639
vt 0.461041 0.000000
vt 0.500000 0.000000
vt 0.559758 0.089433
vt 0.543298 0.197639
vt 0.549939 0.000000
vt 0.549939 0.000000
vt 0.471924 0.204536
vt 0.463339 0.095443
vt 0.500000 0.000000
vt 0.500000 0.250000
vt 0.625000 0.000000
vt 0.625000 0.000000
vt 0.559963 0.000000
vt 0.559963 0.000000
vt 0.875000 0.750000
vt 0.750000 0.500000
vt 0.820930 0.651683
vt 0.625000 0.000000
vt 0.625000 0.000000
vt 0.570081 0.000000
vt 0.625000 0.000000
vt 0.814368 0.750000
vt 0.814368 0.750000
vt 0.875000 0.750000
vt 0.875000 0.750000
vt 0.570081 0.000000
vt 0.875000 0.750000
vt 0.822363 0.750000
vt 0.875000 0.750000
vt 0.822363 0.750000
vt 0.570081 0.000000
vt 0.625000 0.000000
vt 0.625000 0.000000
vt 0.814368 0.750000
vt 0.625000 0.000000
vt 0.559963 0.000000
vt 0.625000 0.000000
vt 0.875000 0.750000
vt 0.875000 0.750000
vn -0.0633 -0.9803 0.1873
vn -0.2698 -0.9495 -0.1603
vn 0.8910 0.4255 0.1585
vn -0.6037 0.7578 0.2475
vn -0.0000 0.0000 1.0000
vn -0.4069 0.9130 0.0278
vn -0.3783 0.8594 0.3440
vn 0.6405 -0.5456 -0.5404
vn -0.8771 0.4225 -0.2285
vn 0.3983 0.9079 0.1308
vn 0.7171 -0.6850 -0.1284
vn -0.2607 -0.9495 -0.1749
vn 0.8392 -0.5117 -0.1844
vn -0.8138 0.2877 -0.5050
vn -0.2536 0.9588 0.1276
vn 0.9115 -0.2745 0.3062
vn -0.0225 0.9885 -0.1493
vn 0.9278 -0.3346 0.1651
vn 0.0225 0.9885 -0.1493
vn 0.2536 0.9588 0.1276
vn -0.9278 -0.3346 0.1651
vn 0.8138 0.2877 -0.5050
vn -0.9115 -0.2745 0.3062
vn -0.3983 0.9079 0.1308
vn 0.3783 0.8594 0.3440
vn -0.8910 0.4255 0.1585
vn 0.2607 -0.9495 -0.1749
vn 0.8771 0.4225 -0.2285
vn -0.9286 0.3708 0.0097
vn 0.4069 0.9130 0.0278
vn -0.8357 -0.3864 -0.3901
vn 0.6037 0.7578 0.2475
vn 0.8357 -0.3864 -0.3901
vn -0.8392 -0.5117 -0.1844
vn 0.9286 0.3708 0.0097
vn 0.2698 -0.9495 -0.1603
vn -0.7171 -0.6850 -0.1284
vn -0.6405 -0.5456 -0.5404
vn -0.4044 -0.9087 -0.1037
vn 0.0633 -0.9803 0.1873
vn -0.2439 -0.9219 0.3010
vn 0.0070 -0.1050 -0.9945
vn -0.2544 -0.9615 0.1039
vn -0.2600 -0.9656 -0.0025
vn -0.4930 -0.8568 -0.1512
vn -0.2409 0.9107 -0.3355
vn -0.6338 -0.6919 -0.3457
vn -0.5477 0.6387 -0.5405
vn -0.2486 0.9398 -0.2343
vn -0.2439 -0.9598 -0.1393
vn -0.2678 -0.9594 -0.0884
vn -0.8155 -0.5414 -0.2047
vn -0.0142 -0.0604 -0.9981
vn -0.0799 0.7779 -0.6233
vn -0.8865 -0.4627 -0.0020
vn -0.8299 0.5410 -0.1364
vn -0.0713 0.9690 0.2366
vn -0.0222 -0.9967 -0.0779
vn -0.0189 0.9939 0.1085
vn -0.0209 -0.9995 -0.0239
vn -0.0698 -0.8545 -0.5147
vn -0.0073 -0.8505 -0.5259
vn -0.0278 -0.9993 -0.0239
vn -0.0500 0.9930 0.1074
vn -0.0023 0.7707 -0.6372
vn -0.0357 -0.9991 -0.0238
vn -0.1855 -0.8511 -0.4911
vn 0.0063 -0.9815 0.1916
vn -0.0746 0.9864 -0.1466
vn -0.0241 -0.9967 -0.0779
vn -0.0164 0.9704 0.2411
vn -0.0331 0.9883 -0.1488
vn -0.0174 -0.9816 0.1902
vn 0.0649 -0.9788 0.1945
vn -0.1575 0.9773 -0.1415
vn 0.0968 0.9639 0.2480
vn -0.1008 -0.9920 -0.0757
vn -0.0100 0.9940 0.1088
vn -0.2158 0.7782 -0.5898
vn -0.0495 -0.9958 -0.0772
vn 0.0167 0.9698 0.2434
vn -0.9575 0.2883 0.0000
vn -0.9575 -0.2883 0.0000
vn -0.3878 -0.8147 -0.4310
vn -0.0647 -0.9976 -0.0236
vn 0.0139 0.9939 0.1096
vn -0.4423 0.7421 -0.5035
vn -0.7566 -0.2809 -0.5905
vn -0.2557 0.9667 0.0000
vn -0.8320 0.4071 -0.3770
vn -0.2548 0.9631 -0.0874
vn -0.5459 0.7883 -0.2839
vn -0.8126 0.5756 0.0915
vn -0.8316 0.5084 0.2238
vn -0.8345 -0.4165 0.3607
vn 0.4348 0.8958 0.0924
vn -0.9843 0.0641 -0.1644
vn 0.3195 0.7986 -0.5100
vn -0.6802 -0.7232 0.1198
vn 0.6798 0.6660 0.3071
vn -0.8698 -0.4702 0.1494
vn -0.0033 0.9858 -0.1677
vn 0.8467 0.4674 0.2542
vn -0.5184 -0.8045 0.2899
vn 0.7199 0.6918 0.0560
vn -0.9682 0.0002 -0.2501
vn 0.6616 0.7470 0.0651
vn -0.6091 -0.7281 0.3144
vn -0.8024 -0.4787 0.3563
vn 0.2851 0.9581 -0.0262
vn -0.9932 0.0557 0.1019
vn 0.9367 0.2874 0.1999
vn -0.7098 -0.6934 0.1245
vn 0.0928 0.9572 -0.2743
vn 0.4044 -0.9087 -0.1037
vn 0.2439 -0.9219 0.3010
vn -0.0070 -0.1050 -0.9945
vn 0.2544 -0.9615 0.1039
vn 0.2600 -0.9656 -0.0025
vn 0.4930 -0.8568 -0.1512
vn 0.2409 0.9107 -0.3355
vn 0.6338 -0.6919 -0.3457
vn 0.5477 0.6387 -0.5405
vn 0.2486 0.9398 -0.2343
vn 0.2439 -0.9598 -0.1393
vn 0.2678 -0.9594 -0.0884
vn 0.8155 -0.5414 -0.2047
vn 0.0142 -0.0604 -0.9981
vn 0.0799 0.7779 -0.6233
vn 0.8865 -0.4627 -0.0020
vn 0.8299 0.5410 -0.1364
vn 0.0713 0.9690 0.2366
vn 0.0222 -0.9967 -0.0779
vn 0.0189 0.9939 0.1085
vn 0.0209 -0.9995 -0.0239
vn 0.0698 -0.8545 -0.5147
vn 0.0073 -0.8505 -0.5259
vn 0.0278 -0.9993 -0.0239
vn 0.0500 0.9930 0.1074
vn 0.0023 0.7707 -0.6372
vn 0.0357 -0.9991 -0.0238
vn 0.1855 -0.8511 -0.4911
vn -0.0063 -0.9815 0.1916
vn 0.0746 0.9864 -0.1466
vn 0.0241 -0.9967 -0.0779
vn 0.0164 0.9704 0.2411
vn 0.0331 0.9883 -0.1488
vn 0.0174 -0.9816 0.1902
vn -0.0649 -0.9788 0.1945
vn 0.1575 0.9773 -0.1415
vn -0.0968 0.9639 0.2480
vn 0.1008 -0.9920 -0.0757
vn 0.0100 0.9940 0.1088
vn 0.2158 0.7782 -0.5898
vn 0.0495 -0.9958 -0.0772
vn -0.0167 0.9698 0.2434
vn 0.9575 0.2883 0.0000
vn 0.9575 -0.2883 0.0000
vn 0.3878 -0.8147 -0.4310
vn 0.0647 -0.9976 -0.0236
vn -0.0139 0.9939 0.1096
vn 0.4423 0.7421 -0.5035
vn 0.7566 -0.2809 -0.5905
vn 0.2557 0.9667 0.0000
vn 0.8320 0.4071 -0.3770
vn 0.2548 0.9631 -0.0874
vn 0.5459 0.7883 -0.2839
vn 0.8126 0.5756 0.0915
vn 0.8316 0.5084 0.2238
vn 0.8345 -0.4165 0.3607
vn -0.4348 0.8958 0.0924
vn 0.9843 0.0641 -0.1644
vn -0.3195 0.7986 -0.5100
vn 0.6802 -0.7232 0.1198
vn -0.6798 0.6660 0.3071
vn 0.8698 -0.4702 0.1494
vn 0.0033 0.9858 -0.1677
vn -0.8467 0.4674 0.2542
vn 0.5184 -0.8045 0.2898
vn -0.7199 0.6918 0.0560
vn 0.9682 0.0002 -0.2501
vn -0.6616 0.7470 0.0651
vn 0.6091 -0.7281 0.3144
vn 0.8024 -0.4787 0.3563
vn -0.2851 0.9581 -0.0262
vn 0.9932 0.0557 0.1019
vn -0.9367 0.2874 0.1999
vn 0.7098 -0.6934 0.1245
vn -0.0928 0.9572 -0.2743
usemtl None
s off
f 60/1/1 61/2/1 70/3/1 69/4/1
f 43/5/2 3/6/2 28/7/2 27/8/2
f 6/9/3 213/10/3 215/11/3 210/12/3 142/13/3 140/14/3
f 46/15/4 100/16/4 99/17/4
f 158/18/5 16/19/5 144/20/5 160/21/5
f 44/22/6 105/23/6 106/24/6 46/15/6
f 212/25/7 219/26/7 218/27/7 211/28/7
f 11/29/8 152/30/8 161/31/8 138/32/8
f 30/33/9 4/34/9 10/35/9 33/36/9 40/37/9 42/38/9
f 157/39/10 159/40/10 12/41/10 212/25/10 211/28/10
f 31/42/11 23/43/11 134/44/11 168/45/11 167/46/11 163/47/11
f 47/48/12 9/49/12 13/50/12 49/51/12
f 23/43/13 132/52/13 145/53/13 134/44/13
f 33/36/14 10/35/14 14/54/14 35/55/14
f 52/56/15 18/57/15 110/58/15 111/59/15 108/60/15 54/61/15
f 142/13/16 144/62/16 16/63/16 5/64/16
f 63/65/17 62/66/17 71/67/17 72/68/17
f 160/21/5 144/20/5 12/69/5 159/70/5
f 140/14/18 142/13/18 5/64/18 7/71/18
f 166/72/19 175/73/19 174/74/19 165/75/19
f 155/76/20 157/39/20 211/28/20 214/77/20 213/78/20 6/79/20
f 37/80/21 17/81/21 21/82/21 39/83/21
f 57/84/5 56/85/5 26/86/5 41/87/5
f 136/88/22 138/32/22 8/89/22 15/90/22
f 39/83/23 21/82/23 25/91/23 41/92/23
f 54/61/24 108/60/24 109/93/24 26/94/24 56/95/24
f 109/93/25 108/60/25 115/96/25 116/97/25
f 55/98/5 57/84/5 41/87/5 25/99/5
f 18/100/26 37/80/26 39/83/26 107/101/26 112/102/26 110/103/26
f 150/104/27 152/105/27 11/106/27 19/107/27
f 134/44/28 145/53/28 143/108/28 136/88/28 15/90/28 20/109/28
f 2/110/29 59/111/29 61/2/29 37/80/29 18/100/29
f 147/112/30 149/113/30 209/114/30 208/115/30
f 9/116/31 38/117/31 35/55/31 13/118/31
f 149/113/32 202/119/32 203/120/32
f 19/121/33 11/29/33 138/32/33 141/122/33
f 3/123/34 30/33/34 42/38/34 28/124/34
f 24/125/35 6/9/35 140/14/35 164/126/35 162/127/35
f 146/128/36 22/129/36 132/130/36 23/131/36
f 1/132/37 60/1/37 64/133/37 65/134/37 30/33/37 3/123/37
f 13/118/38 35/55/38 58/135/38 49/136/38
f 42/38/39 40/37/39 32/137/39
f 163/47/40 172/138/40 173/139/40 164/126/40
f 21/140/41 53/141/41 55/142/41 25/143/41
f 28/124/42 42/38/42 32/137/42 34/144/42
f 17/145/43 51/146/43 53/141/43 21/140/43
f 1/147/44 45/148/44 51/146/44 17/145/44
f 38/117/45 32/137/45 40/37/45 33/36/45
f 10/149/46 48/150/46 50/151/46 14/152/46
f 35/55/47 38/117/47 33/36/47
f 35/55/48 14/54/48 50/153/48 58/135/48
f 4/154/49 101/155/49 102/156/49 66/157/49 48/150/49 10/149/49
f 36/158/50 34/159/50 9/49/50 47/48/50
f 3/6/51 43/5/51 45/148/51 1/147/51
f 34/144/52 32/137/52 38/117/52 9/116/52
f 27/8/53 28/7/53 34/160/53 36/158/53
f 71/67/54 67/161/54 75/162/54 79/163/54
f 61/2/55 60/1/55 1/132/55 17/81/55 37/80/55
f 30/33/56 62/66/56 63/65/56 59/111/56 2/110/56 4/34/56
f 61/2/57 59/111/57 68/164/57 70/3/57
f 65/134/58 64/133/58 73/165/58 74/166/58
f 68/164/59 72/68/59 80/167/59 76/168/59
f 73/165/60 69/4/60 77/169/60 81/170/60
f 67/161/61 74/166/61 82/171/61 75/162/61
f 30/33/62 65/134/62 74/166/62 67/161/62
f 64/133/63 60/1/63 69/4/63 73/165/63
f 59/111/64 63/65/64 72/68/64 68/164/64
f 62/66/65 30/33/65 67/161/65 71/67/65
f 81/170/66 77/169/66 85/172/66 89/173/66
f 75/162/67 82/171/67 90/174/67 83/175/67
f 77/169/68 78/176/68 86/177/68 85/172/68
f 80/167/69 79/163/69 87/178/69 88/179/69
f 74/166/70 73/165/70 81/170/70 82/171/70
f 70/3/71 68/164/71 76/168/71 78/176/71
f 72/68/72 71/67/72 79/163/72 80/167/72
f 69/4/73 70/3/73 78/176/73 77/169/73
f 85/172/74 86/177/74 94/180/74 93/181/74
f 88/179/75 87/178/75 95/182/75 96/183/75
f 86/177/76 84/184/76 92/185/76 94/180/76
f 90/174/77 89/173/77 97/186/77 98/187/77
f 76/168/78 80/167/78 88/179/78 84/184/78
f 79/163/79 75/162/79 83/175/79 87/178/79
f 82/171/80 81/170/80 89/173/80 90/174/80
f 78/176/81 76/168/81 84/184/81 86/177/81
f 29/188/82 92/185/82 96/183/82 95/182/82 91/189/82
f 29/188/83 93/181/83 94/180/83
f 94/180/82 92/185/82 29/188/82
f 91/189/83 98/187/83 97/186/83 93/181/83 29/188/83
f 83/175/84 90/174/84 98/187/84 91/189/84
f 89/173/85 85/172/85 93/181/85 97/186/85
f 84/184/86 88/179/86 96/183/86 92/185/86
f 87/178/87 83/175/87 91/189/87 95/182/87
f 117/190/88 119/191/88 125/192/88 123/193/88
f 99/17/89 100/16/89 2/194/89 18/57/89 52/56/89
f 66/157/90 102/156/90 101/155/90 105/23/90 104/195/90
f 100/16/91 103/196/91 101/155/91 4/154/91 2/194/91
f 104/195/92 105/23/92 44/22/92
f 46/15/93 106/24/93 105/23/93 101/155/93 103/196/93 100/16/93
f 109/197/94 107/101/94 39/83/94 41/92/94 26/198/94
f 107/101/95 109/197/95 116/199/95 114/200/95
f 108/60/96 111/59/96 118/201/96 115/96/96
f 110/103/97 112/102/97 119/191/97 117/190/97
f 118/201/98 117/202/98 123/203/98 124/204/98
f 119/191/99 114/200/99 120/205/99 125/192/99
f 116/97/100 115/96/100 121/206/100 122/207/100
f 112/102/101 107/101/101 114/200/101 119/191/101
f 111/59/102 110/58/102 117/202/102 118/201/102
f 122/207/103 121/206/103 127/208/103 128/209/103
f 120/205/104 122/210/104 128/211/104 126/212/104
f 121/206/105 124/204/105 130/213/105 127/208/105
f 123/193/106 125/192/106 131/214/106 129/215/106
f 115/96/107 118/201/107 124/204/107 121/206/107
f 114/200/108 116/199/108 122/210/108 120/205/108
f 113/216/109 126/212/109 128/211/109
f 127/208/110 130/213/110 129/217/110 113/218/110
f 129/215/111 131/214/111 126/212/111 113/216/111
f 128/209/112 127/208/112 113/218/112
f 125/192/113 120/205/113 126/212/113 131/214/113
f 124/204/114 123/203/114 129/217/114 130/213/114
f 145/53/115 135/219/115 143/108/115
f 5/220/116 16/221/116 158/222/116 156/223/116
f 132/52/117 137/224/117 135/219/117 145/53/117
f 7/225/118 5/220/118 156/223/118 154/226/118
f 31/227/119 7/225/119 154/226/119 148/228/119
f 141/122/120 136/88/120 143/108/120 135/219/120
f 15/229/121 8/230/121 153/231/121 151/232/121
f 138/32/122 136/88/122 141/122/122
f 138/32/123 161/31/123 153/233/123 8/89/123
f 20/234/124 15/229/124 151/232/124 169/235/124 205/236/124 204/237/124
f 139/238/125 150/104/125 19/107/125 137/239/125
f 23/131/126 31/227/126 148/228/126 146/128/126
f 137/224/127 19/121/127 141/122/127 135/219/127
f 22/129/128 139/238/128 137/240/128 132/130/128
f 174/74/129 182/241/129 178/242/129 170/243/129
f 164/126/130 140/14/130 7/71/130 31/42/130 163/47/130
f 134/44/131 20/109/131 24/125/131 162/127/131 166/72/131 165/75/131
f 164/126/132 173/139/132 171/244/132 162/127/132
f 168/45/133 177/245/133 176/246/133 167/46/133
f 171/244/134 179/247/134 183/248/134 175/73/134
f 176/246/135 184/249/135 180/250/135 172/138/135
f 170/243/136 178/242/136 185/251/136 177/245/136
f 134/44/137 170/243/137 177/245/137 168/45/137
f 167/46/138 176/246/138 172/138/138 163/47/138
f 162/127/139 171/244/139 175/73/139 166/72/139
f 165/75/140 174/74/140 170/243/140 134/44/140
f 184/249/141 192/252/141 188/253/141 180/250/141
f 178/242/142 186/254/142 193/255/142 185/251/142
f 180/250/143 188/253/143 189/256/143 181/257/143
f 183/248/144 191/258/144 190/259/144 182/241/144
f 177/245/145 185/251/145 184/249/145 176/246/145
f 173/139/146 181/257/146 179/247/146 171/244/146
f 175/73/147 183/248/147 182/241/147 174/74/147
f 172/138/148 180/250/148 181/257/148 173/139/148
f 188/253/149 196/260/149 197/261/149 189/256/149
f 191/258/150 199/262/150 198/263/150 190/259/150
f 189/256/151 197/261/151 195/264/151 187/265/151
f 193/255/152 201/266/152 200/267/152 192/252/152
f 179/247/153 187/265/153 191/258/153 183/248/153
f 182/241/154 190/259/154 186/254/154 178/242/154
f 185/251/155 193/255/155 192/252/155 184/249/155
f 181/257/156 189/256/156 187/265/156 179/247/156
f 133/268/157 194/269/157 198/263/157 199/262/157 195/264/157
f 133/268/158 197/261/158 196/260/158
f 197/261/157 133/268/157 195/264/157
f 194/269/158 133/268/158 196/260/158 200/267/158 201/266/158
f 186/254/159 194/269/159 201/266/159 193/255/159
f 192/252/160 200/267/160 196/260/160 188/253/160
f 187/265/161 195/264/161 199/262/161 191/258/161
f 190/259/162 198/263/162 194/269/162 186/254/162
f 220/270/163 226/271/163 228/272/163 222/273/163
f 202/119/164 155/76/164 6/79/164 24/274/164 203/120/164
f 169/235/165 207/275/165 208/115/165 204/237/165 205/236/165
f 203/120/166 24/274/166 20/234/166 204/237/166 206/276/166
f 207/275/167 147/112/167 208/115/167
f 149/113/168 203/120/168 206/276/168 204/237/168 208/115/168 209/114/168
f 212/277/169 12/278/169 144/62/169 142/13/169 210/12/169
f 210/12/170 217/279/170 219/280/170 212/277/170
f 211/28/171 218/27/171 221/281/171 214/77/171
f 213/10/172 220/270/172 222/273/172 215/11/172
f 221/281/173 227/282/173 226/283/173 220/284/173
f 222/273/174 228/272/174 223/285/174 217/279/174
f 219/26/175 225/286/175 224/287/175 218/27/175
f 215/11/176 222/273/176 217/279/176 210/12/176
f 214/77/177 221/281/177 220/284/177 213/78/177
f 225/286/178 231/288/178 230/289/178 224/287/178
f 223/285/179 229/290/179 231/291/179 225/292/179
f 224/287/180 230/289/180 233/293/180 227/282/180
f 226/271/181 232/294/181 234/295/181 228/272/181
f 218/27/182 224/287/182 227/282/182 221/281/182
f 217/279/183 223/285/183 225/292/183 219/280/183
f 216/296/184 231/291/184 229/290/184
f 230/289/185 216/297/185 232/298/185 233/293/185
f 232/294/186 216/296/186 229/290/186 234/295/186
f 231/288/187 216/297/187 230/289/187
f 228/272/188 234/295/188 229/290/188 223/285/188
f 227/282/189 233/293/189 232/298/189 226/283/189
