# Blender v2.82 (sub 7) OBJ File: 'roughcar.blend'
# www.blender.org
mtllib fastback_car.mtl
o Cube
v 1.252381 0.629737 -1.055153
v 1.338528 -0.350594 -1.080089
v 1.372137 0.672632 1.171038
v 1.338528 -0.360775 0.983032
v -1.227187 0.629737 -1.055153
v -1.253375 -0.342122 -1.080089
v -1.366631 0.657924 1.171038
v -1.253375 -0.352302 0.983032
v 0.904709 0.637849 2.566455
v 1.129956 -0.315848 2.461389
v -0.904709 0.637849 2.566455
v -1.129956 -0.315848 2.461389
v 0.761724 0.385077 -2.799530
v 0.803293 -0.247089 -2.885049
v -0.761724 0.385077 -2.799530
v -0.741084 -0.238616 -2.885049
v 0.815719 1.173278 -0.515085
v 1.387186 -0.135761 2.074128
v -0.850563 1.173278 -0.515085
v 1.239047 -0.182358 2.638535
v 1.338528 -0.332608 2.086345
v -1.253375 -0.324136 2.086345
v -1.366631 0.661996 1.797888
v 1.366631 0.661996 1.797888
v 1.123419 0.601726 -1.472170
v -1.123419 0.601726 -1.472170
v 0.853111 -0.328875 -2.256434
v -0.767958 -0.320403 -2.256434
v 1.435845 0.266738 -1.378727
v -1.435845 0.256557 1.221942
v 1.435845 0.256557 1.221942
v -1.435845 0.266738 -1.378727
v -1.348137 0.024434 2.705729
v 1.348137 0.024434 2.705729
v 0.861279 0.000000 -2.970568
v -0.849808 0.000000 -2.970568
v -1.435845 0.256557 1.754450
v 1.435845 0.256557 1.754450
v -1.435845 0.266738 -1.957796
v 1.435845 0.266738 -1.957796
v -1.435845 0.506109 1.158821
v -1.348137 0.498250 2.669078
v -1.435845 0.510181 1.749020
v 1.435845 0.424662 -1.838680
v 1.435845 0.485747 -1.409270
v 1.435845 0.506109 1.158821
v -1.435845 0.485747 -1.409270
v 1.348137 0.498250 2.669078
v 0.861279 0.145707 -2.933917
v -0.849808 0.145707 -2.933917
v 1.435845 0.510181 1.749020
v -1.435845 0.424662 -1.838680
v 1.113440 0.672279 1.171038
v -1.123854 0.657924 1.171038
v -0.955136 0.647336 1.797888
v 1.061240 0.647336 1.797888
v -0.785062 1.152238 0.523667
v 0.763377 1.152639 0.514661
v -0.686673 0.677365 2.262249
v 0.840061 0.668816 2.312955
v -0.659275 0.800673 1.805553
v -0.759744 0.972185 1.167801
v 0.682447 0.789845 1.806987
v 0.735105 0.969829 1.169235
v 1.002938 0.510245 -2.355756
v 1.144303 -0.320391 -2.447383
v -1.002938 0.510245 -2.355756
v -1.059150 -0.311918 -2.447383
v -1.287397 0.128279 -2.319105
v 1.286942 0.128279 -2.319105
v 1.239475 0.250773 -2.422949
v -1.239475 0.250773 -2.422949
v -1.239047 -0.182358 2.638535
v -1.344610 -0.131525 2.074128
v 1.387186 -0.070604 -1.109953
v 1.387186 -0.100468 0.993552
v -1.344610 -0.066368 -1.109953
v -1.344610 -0.096232 0.993552
v 0.832286 -0.123544 -2.927808
v -0.795446 -0.119308 -2.927808
v -1.344610 -0.021024 -2.195349
v 1.384396 -0.025260 -2.195349
v -1.238948 -0.066975 -2.400888
v 1.222614 -0.071211 -2.400888
v 0.042576 -0.346358 -1.080089
v 0.042576 -0.356539 0.983032
v 0.003803 0.686489 -1.209373
v -0.000000 0.637849 2.566455
v 0.000000 -0.315848 2.461389
v 0.031105 -0.242853 -2.885049
v 0.000000 0.303631 -2.901672
v -0.017047 1.222699 -0.641670
v 0.042576 -0.328372 2.086345
v 0.042576 -0.324639 -2.256434
v -0.000000 0.645707 -1.640574
v 0.005736 0.000000 -3.041857
v 0.000000 0.024434 2.705729
v 0.005736 0.157924 -2.958351
v 0.000000 0.498250 2.669078
v -0.011218 1.208919 0.590282
v 0.020213 0.680151 2.287602
v -0.019380 1.041608 1.168518
v -0.002534 0.844679 1.806270
v 0.042576 -0.316155 -2.447383
v -0.000000 0.487440 -2.384596
v 0.000000 -0.182358 2.638535
v 0.018420 -0.121426 -2.927808
v 0.690552 -0.358657 0.983032
v 0.536467 0.686489 -1.178520
v 0.564978 -0.315848 2.461389
v 0.380862 0.303631 -2.870819
v 0.351953 1.222699 -0.610817
v 0.717922 0.266738 -1.957796
v 0.539106 -0.326757 -2.256434
v 0.433508 0.000000 -3.041857
v 0.433508 0.157924 -2.958351
v 0.331685 1.209019 0.588030
v 0.332897 0.841972 1.806629
v 0.447843 -0.318273 -2.447383
v 0.704237 -0.099409 0.993552
v 0.704237 -0.069545 -1.109953
v 0.425353 -0.122485 -2.927808
v 0.704237 -0.039342 -2.195349
v 0.690552 -0.348476 -1.080089
v 0.466475 0.637849 2.566455
v 0.417199 -0.244971 -2.885049
v 0.690552 -0.330490 2.086345
v 0.482879 0.645707 -1.609721
v 0.674069 0.024434 2.705729
v 0.717922 0.266738 -1.378727
v 0.717922 0.256557 1.221942
v 0.717922 0.256557 1.754450
v 0.674069 0.498250 2.669078
v 0.399710 0.678014 2.300279
v 0.280013 1.041019 1.168877
v 0.431871 0.487440 -2.353743
v 0.704237 -0.134702 2.074128
v 0.619523 -0.182358 2.638535
v -0.605400 -0.344240 -1.080089
v -0.452354 0.637849 2.566455
v -0.354990 -0.240734 -2.885049
v -0.605400 -0.326254 2.086345
v -0.482879 0.645707 -1.609721
v -0.674069 0.024434 2.705729
v -0.717922 0.266738 -1.378727
v -0.717922 0.256557 1.221942
v -0.717922 0.256557 1.754450
v -0.674069 0.498250 2.669078
v -0.373404 0.675228 2.274926
v -0.318772 1.042197 1.168160
v -0.431871 0.487440 -2.353743
v -0.661661 -0.132584 2.074128
v -0.619523 -0.182358 2.638535
v -0.605400 -0.354421 0.983032
v -0.528861 0.686489 -1.178520
v -0.564978 -0.315848 2.461389
v -0.380862 0.303631 -2.870819
v -0.386046 1.222699 -0.610817
v -0.717922 0.266738 -1.957796
v -0.362691 -0.322521 -2.256434
v -0.422036 0.000000 -3.041857
v -0.422036 0.157924 -2.958351
v -0.354121 1.208819 0.592533
v -0.337964 0.847386 1.805912
v -0.362691 -0.314037 -2.447383
v -0.661661 -0.097291 0.993552
v -0.661661 -0.067427 -1.109953
v -0.388513 -0.120367 -2.927808
v -0.661661 -0.037224 -2.195349
v 1.177558 -0.311455 -2.225891
v -0.767958 -0.320403 -2.256434
v -1.344610 -0.021024 -2.195349
v -1.056284 -0.170713 -2.225891
v -1.115088 -0.305101 -2.225891
vt 0.812500 0.500000
vt 0.875000 0.500000
vt 0.875000 0.572678
vt 0.812500 0.572678
vt 0.312500 0.750000
vt 0.375000 0.750000
vt 0.375000 0.750000
vt 0.312500 0.750000
vt 0.562500 0.000000
vt 0.625000 0.000000
vt 0.625000 0.250000
vt 0.562500 0.250000
vt 0.312500 0.500000
vt 0.375000 0.500000
vt 0.375000 0.750000
vt 0.312500 0.750000
vt 0.562500 0.500000
vt 0.625000 0.500000
vt 0.625000 0.750000
vt 0.562500 0.750000
vt 0.687500 0.500000
vt 0.625000 0.500000
vt 0.625000 0.500000
vt 0.687500 0.500000
vt 0.562500 0.937500
vt 0.625000 0.937500
vt 0.625000 1.000000
vt 0.562500 1.000000
vt 0.875000 0.750000
vt 0.821691 0.750000
vt 0.846521 0.750000
vt 0.875000 0.750000
vt 0.562500 0.750000
vt 0.625000 0.750000
vt 0.625000 0.750000
vt 0.562500 0.750000
vt 0.437500 0.000000
vt 0.375000 0.000000
vt 0.375000 0.000000
vt 0.437500 0.000000
vt 0.562500 0.437500
vt 0.625000 0.437500
vt 0.562500 0.500000
vt 0.437500 0.500000
vt 0.375000 0.500000
vt 0.375000 0.500000
vt 0.437500 0.500000
vt 0.562500 0.250000
vt 0.625000 0.250000
vt 0.625000 0.250000
vt 0.562500 0.250000
vt 0.187500 0.500000
vt 0.125000 0.500000
vt 0.125000 0.500000
vt 0.187500 0.500000
vt 0.844666 0.750000
vt 0.860230 0.750000
vt 0.646419 0.750000
vt 0.715102 0.750000
vt 0.671913 0.750000
vt 0.625000 0.572678
vt 0.687500 0.572678
vt 0.644242 0.750000
vt 0.625000 0.250000
vt 0.562500 0.250000
vt 0.687500 0.500000
vt 0.625000 0.500000
vt 0.687500 0.500000
vt 0.500000 0.500000
vt 0.500000 0.500000
vt 0.562500 0.500000
vt 0.343750 0.406250
vt 0.312500 0.375000
vt 0.218750 0.437500
vt 0.125000 0.500000
vt 0.187500 0.500000
vt 0.500000 0.000000
vt 0.500000 0.000000
vt 0.562500 0.000000
vt 0.437500 0.250000
vt 0.500000 0.250000
vt 0.500000 0.250000
vt 0.437500 0.250000
vt 0.562500 0.500000
vt 0.500000 0.500000
vt 0.500000 0.500000
vt 0.437500 0.437500
vt 0.500000 0.437500
vt 0.500000 0.000000
vt 0.562500 0.000000
vt 0.437500 0.750000
vt 0.500000 0.750000
vt 0.500000 0.750000
vt 0.437500 0.750000
vt 0.437500 0.937500
vt 0.500000 0.937500
vt 0.500000 1.000000
vt 0.437500 1.000000
vt 0.437500 0.500000
vt 0.500000 0.750000
vt 0.437500 0.750000
vt 0.437500 0.000000
vt 0.500000 0.250000
vt 0.437500 0.250000
vt 0.500000 0.437500
vt 0.500000 0.437500
vt 0.437500 0.437500
vt 0.437500 0.187500
vt 0.375000 0.000000
vt 0.375000 0.187500
vt 0.500000 0.187500
vt 0.500000 0.187500
vt 0.437500 0.187500
vt 0.375000 0.187500
vt 0.625000 0.000000
vt 0.625000 0.000000
vt 0.500000 0.250000
vt 0.679180 0.750000
vt 0.675319 0.750000
vt 0.875000 0.750000
vt 0.815141 0.750000
vt 0.710274 0.750000
vt 0.704139 0.750000
vt 0.664955 0.750000
vt 0.833456 0.750000
vt 0.794887 0.750000
vt 0.801478 0.750000
vt 0.780185 0.750000
vt 0.437500 0.250000
vt 0.406250 0.500000
vt 0.375000 0.500000
vt 0.375000 0.937500
vt 0.375000 1.000000
vt 0.375000 0.437500
vt 0.375000 0.250000
vt 0.437500 0.500000
vt 0.406250 0.250000
vt 0.375000 0.250000
vt 0.375000 0.437500
vt 0.375000 0.250000
vt 0.500000 0.312500
vt 0.375000 0.312500
vt 0.437500 0.312500
vt 0.437500 0.375000
vt 0.375000 0.375000
vt 0.375000 0.812500
vt 0.437500 0.812500
vt 0.437500 0.875000
vt 0.375000 0.875000
vt 0.812500 0.500000
vt 0.750000 0.500000
vt 0.750000 0.500000
vt 0.812500 0.500000
vt 0.312500 0.500000
vt 0.250000 0.500000
vt 0.250000 0.500000
vt 0.312500 0.500000
vt 0.717749 0.750000
vt 0.756318 0.750000
vt 0.745230 0.750000
vt 0.758290 0.750000
vt 0.782507 0.750000
vt 0.743323 0.750000
vt 0.500000 0.812500
vt 0.562500 0.812500
vt 0.562500 0.875000
vt 0.500000 0.875000
vt 0.500000 0.312500
vt 0.562500 0.312500
vt 0.562500 0.375000
vt 0.500000 0.375000
vt 0.750000 0.500000
vt 0.750000 0.572678
vt 0.250000 0.500000
vt 0.312500 0.500000
vt 0.625000 0.312500
vt 0.625000 0.375000
vt 0.687500 0.750000
vt 0.750000 0.750000
vt 0.625000 0.812500
vt 0.625000 0.875000
vt 0.750000 0.500000
vt 0.812500 0.500000
vt 0.187500 0.500000
vt 0.250000 0.500000
vt 0.250000 0.750000
vt 0.187500 0.750000
vt 0.187500 0.750000
vt 0.250000 0.750000
vt 0.250000 0.750000
vt 0.187500 0.750000
vt 0.406250 0.468750
vt 0.437500 0.562500
vt 0.375000 0.562500
vt 0.500000 0.562500
vt 0.500000 0.562500
vt 0.375000 0.562500
vt 0.437500 0.562500
vt 0.125000 0.750000
vt 0.125000 0.750000
vt 0.125000 0.500000
vt 0.125000 0.750000
vt 0.875000 0.500000
vt 0.875000 0.500000
vt 0.875000 0.500000
vt 0.500000 0.312500
vt 0.437500 0.312500
vt 0.375000 0.312500
vt 0.812500 0.750000
vt 0.000000 0.000000
vt 0.125000 0.500000
vt 0.218750 0.437500
vt 0.312500 0.375000
vt 0.375000 0.250000
vn -0.1885 0.7460 -0.6387
vn -0.0017 -0.9992 0.0411
vn -0.7112 0.7025 -0.0278
vn -0.0033 -1.0000 -0.0049
vn 0.7660 0.6423 -0.0276
vn -0.0842 0.9558 -0.2818
vn -0.0000 0.5923 0.8057
vn -0.0325 0.9994 0.0145
vn 0.4731 0.8640 0.1724
vn -0.7995 -0.5765 0.1688
vn 0.0571 0.5153 -0.8551
vn 0.7755 -0.2173 -0.5927
vn -0.5918 0.6018 -0.5362
vn -0.0039 -0.9860 -0.1666
vn -0.8206 0.5699 0.0412
vn -0.0014 0.9998 -0.0192
vn 0.1168 0.9930 0.0191
vn 0.7899 0.6117 0.0423
vn 0.9232 0.3843 0.0062
vn -0.0266 0.9993 0.0271
vn -0.3695 0.9183 -0.1420
vn 0.0929 0.9906 -0.1003
vn 1.0000 -0.0000 0.0000
vn 0.0172 -0.1704 0.9852
vn -1.0000 0.0000 0.0000
vn -0.8000 -0.1909 -0.5689
vn 0.8222 0.0029 -0.5692
vn 0.0707 -0.5437 -0.8363
vn -0.9956 0.0054 0.0940
vn 0.9715 -0.2082 0.1129
vn 0.0000 -0.3090 0.9511
vn 0.9903 -0.1389 -0.0012
vn -0.9664 -0.2572 -0.0022
vn 0.0000 -1.0000 0.0000
vn -0.0005 -0.6237 -0.7817
vn -0.0001 -0.0410 0.9992
vn -0.0002 -0.0632 -0.9980
vn -0.4731 0.8640 0.1724
vn 0.5889 0.6107 -0.5293
vn -0.9097 0.4153 -0.0028
vn 0.3708 0.9160 -0.1529
vn -0.8147 0.0003 -0.5799
vn 0.1086 0.3658 -0.9243
vn 0.9956 0.0054 0.0940
vn 0.0000 0.0771 0.9970
vn -0.9048 0.1757 -0.3880
vn 0.5995 0.7638 0.2392
vn 0.4957 0.8499 0.1788
vn 0.0224 0.9997 0.0022
vn -0.4544 0.8665 0.2067
vn 0.0705 0.9633 0.2588
vn -0.6345 0.7375 0.2311
vn -0.5631 0.7926 0.2340
vn -0.1596 0.9475 0.2772
vn 0.3523 0.9291 0.1125
vn -0.1455 0.9484 0.2817
vn 0.4708 0.8448 -0.2544
vn 0.9050 0.1743 -0.3880
vn -0.9115 0.0083 -0.4113
vn -0.0038 -0.9991 -0.0415
vn -0.4708 0.8448 -0.2544
vn 0.0505 -0.9982 0.0327
vn 0.0346 0.9873 -0.1551
vn 0.0000 0.9999 -0.0127
vn -0.0005 -0.6353 -0.7722
vn 0.0000 -0.7986 0.6018
vn 0.8006 -0.5258 0.2873
vn -0.9538 -0.2928 0.0670
vn -0.0004 -0.5429 0.8398
vn -0.0003 -0.1062 -0.9943
vn -0.9458 -0.3246 -0.0031
vn 0.9842 -0.1773 -0.0017
vn 0.8510 0.1301 -0.5088
vn -0.7860 -0.5752 -0.2264
vn -0.0013 -0.3281 -0.9446
vn -0.6988 -0.4434 -0.5613
vn -0.0073 -0.6272 0.7789
vn 0.8220 -0.1719 -0.5429
vn -0.0013 -0.3337 -0.9427
vn -0.0141 0.9779 -0.2085
vn -0.0047 -0.9991 -0.0433
vn 0.0046 0.9551 0.2963
vn 0.0015 0.9606 0.2780
vn -0.0088 0.9426 0.3338
vn 0.0000 0.4674 -0.8840
vn -0.0009 -0.6863 -0.7273
vn -0.0057 0.9955 -0.0944
vn 0.0004 0.9999 0.0114
vn -0.0053 -0.9863 -0.1649
vn -0.0341 0.4466 -0.8941
vn 0.0003 0.9887 0.1496
vn -0.0255 0.9415 -0.3360
vn -0.0017 -0.9995 0.0306
vn 0.0466 0.7304 -0.6814
vn 0.1850 0.7536 -0.6308
vn 0.0084 0.9910 0.1335
vn -0.0039 -0.9865 -0.1636
vn -0.0195 -0.1673 0.9857
vn -0.0001 -0.0405 0.9992
vn -0.0001 -0.0621 -0.9981
vn 0.1592 0.9469 0.2792
vn 0.1451 0.9484 0.2818
vn -0.0042 -0.9989 -0.0466
vn -0.0005 -0.6322 -0.7748
vn -0.0004 -0.5394 0.8420
vn 0.0063 -0.6224 0.7827
vn -0.0013 -0.3309 -0.9437
vn 0.0141 0.9779 -0.2085
vn 0.0006 0.9477 0.3192
vn -0.0009 -0.6830 -0.7304
vn 0.0057 0.9955 -0.0945
vn -0.0006 0.9999 0.0113
vn 0.0341 0.4487 -0.8930
vn 0.0255 0.9415 -0.3360
vn -0.0017 -0.9994 0.0358
vn -0.0017 -0.9997 0.0253
vn 0.0842 0.9558 -0.2818
vn -0.0575 0.5129 -0.8565
vn -0.1169 0.9929 0.0205
vn -0.0934 0.9909 -0.0969
vn -0.0710 -0.5642 -0.8226
vn -0.0005 -0.6274 -0.7787
vn -0.1086 0.3658 -0.9243
vn -0.0730 0.9515 0.2988
vn -0.0346 0.9873 -0.1551
vn -0.0003 -0.1075 -0.9942
vn -0.0013 -0.3365 -0.9417
vn -0.0052 -0.9990 -0.0444
vn 0.0046 0.9559 0.2936
vn 0.0016 0.9606 0.2780
vn -0.0053 -0.9863 -0.1652
vn -0.0078 0.9905 0.1370
vn -0.0468 0.7287 -0.6832
vn -0.8434 -0.5273 -0.1026
vn -0.9848 -0.1738 -0.0032
vn -0.9702 -0.2422 -0.0008
vn -0.6542 0.6707 0.3495
vn -0.0040 -0.9998 -0.0189
vn -0.0037 -0.9998 -0.0182
vn -0.0033 -0.9997 0.0255
vn 0.9982 -0.0600 -0.0002
vn 0.9993 -0.0367 -0.0008
vn 0.9991 -0.0426 -0.0008
vn 0.9523 -0.2968 -0.0706
vn 0.0859 -0.0376 0.9956
vn -0.0423 -0.9989 0.0201
vn 0.8504 -0.4045 -0.3364
vn 0.0312 0.9993 0.0187
vn 0.0006 0.9917 0.1283
usemtl Material
s off
f 155/1/1 5/2/1 19/3/1 158/4/1
f 127/5/2 21/6/2 10/7/2 110/8/2
f 41/9/3 7/10/3 5/11/3 47/12/3
f 124/13/4 2/14/4 4/15/4 108/16/4
f 45/17/5 1/18/5 3/19/5 46/20/5
f 136/21/6 65/22/6 13/23/6 111/24/6
f 148/25/7 140/26/7 11/27/7 42/28/7
f 11/29/8 59/30/8 55/31/8 23/32/8
f 51/33/9 24/34/9 9/35/9 48/36/9
f 74/37/10 22/38/10 12/39/10 73/40/10
f 116/41/11 111/42/11 13/23/11 49/43/11
f 84/44/12 66/45/12 14/46/12 79/47/12
f 72/48/13 67/49/13 15/50/13 50/51/13
f 165/52/14 68/53/14 16/54/14 141/55/14
f 57/56/15 19/3/15 5/2/15 54/57/15
f 3/19/16 1/18/16 53/58/16
f 117/59/17 58/60/17 17/61/17 112/62/17
f 1/18/18 17/61/18 58/60/18 53/58/18
f 46/20/19 3/19/19 24/34/19 51/33/19
f 3/19/20 53/58/20 56/63/20 24/34/20
f 47/12/21 5/11/21 26/64/21 52/65/21
f 109/66/22 1/18/22 25/67/22 128/68/22
f 45/17/23 29/69/23 40/70/23 44/71/23
f 169/72/24 81/73/24 174/74/24 28/75/24 160/76/24
f 41/9/25 30/77/25 37/78/25 43/79/25
f 83/80/26 69/81/26 36/82/26 80/83/26
f 71/84/27 70/85/27 35/86/27 49/43/27
f 122/87/28 115/88/28 35/86/28 79/47/28
f 43/79/29 37/78/29 33/89/29 42/90/29
f 18/91/30 38/92/30 34/93/30 20/94/30
f 153/95/31 144/96/31 33/97/31 73/98/31
f 75/99/32 29/69/32 31/100/32 76/101/32
f 78/102/33 30/77/33 32/103/33 77/104/33
f 113/105/34 40/70/34 29/69/34 130/106/34
f 121/107/35 130/106/35 29/69/35 75/99/35
f 166/108/36 78/102/36 8/109/36 154/110/36
f 147/111/34 37/78/34 30/77/34 146/112/34
f 152/113/37 142/114/37 22/38/37 74/37/37
f 23/115/38 43/79/38 42/90/38 11/116/38
f 65/22/39 71/84/39 49/43/39 13/23/39
f 7/10/40 41/9/40 43/79/40 23/115/40
f 1/18/41 45/17/41 44/71/41 25/67/41
f 32/103/25 47/12/25 52/65/25 39/117/25
f 31/100/23 46/20/23 51/33/23 38/92/23
f 69/81/42 72/48/42 50/51/42 36/82/42
f 115/88/43 116/41/43 49/43/43 35/86/43
f 38/92/44 51/33/44 48/36/44 34/93/44
f 144/96/45 148/25/45 42/28/45 33/97/45
f 29/69/23 45/17/23 46/20/23 31/100/23
f 30/77/25 41/9/25 47/12/25 32/103/25
f 39/117/46 52/65/46 72/48/46 69/81/46
f 53/58/47 58/60/47 64/118/47
f 56/63/48 53/58/48 64/118/48 63/119/48
f 55/31/49 54/57/49 7/120/49 23/32/49
f 55/31/50 59/30/50 61/121/50
f 118/122/51 134/123/51 60/124/51 63/119/51
f 62/125/52 57/56/52 54/57/52
f 61/121/53 62/125/53 54/57/53 55/31/53
f 150/126/54 163/127/54 57/56/54 62/125/54
f 63/119/55 60/124/55 56/63/55
f 164/128/56 150/126/56 62/125/56 61/121/56
f 25/67/57 44/71/57 71/84/57 65/22/57
f 44/71/58 40/70/58 70/85/58 71/84/58
f 81/129/59 39/117/59 69/81/59 83/80/59
f 160/76/60 28/75/60 68/53/60 165/52/60
f 52/65/61 26/64/61 67/49/61 72/48/61
f 170/130/62 27/131/62 66/45/62
f 128/68/63 25/67/63 65/22/63 136/21/63
f 54/57/64 5/2/64 7/10/64
f 147/111/65 152/113/65 74/37/65 37/78/65
f 156/132/66 153/95/66 73/98/66 12/133/66
f 21/6/67 18/91/67 20/94/67 10/7/67
f 37/78/68 74/37/68 73/40/68 33/89/68
f 146/112/69 30/77/69 78/102/69 166/108/69
f 124/134/70 121/107/70 75/99/70 2/14/70
f 8/109/71 78/102/71 77/104/71 6/135/71
f 2/14/72 75/99/72 76/101/72 4/15/72
f 40/70/73 82/136/73 84/44/73 70/85/73
f 174/137/74 81/129/74 83/80/74 68/138/74
f 126/139/75 122/87/75 79/47/75 14/46/75
f 68/138/76 83/80/76 80/83/76 16/140/76
f 159/141/77 39/117/77 81/73/77 169/72/77
f 70/85/78 84/44/78 79/47/78 35/86/78
f 141/142/79 168/143/79 107/144/79 90/145/79
f 110/146/66 138/147/66 106/148/66 89/149/66
f 143/150/80 95/151/80 105/152/80 151/153/80
f 114/154/81 94/155/81 104/156/81 119/157/81
f 118/122/82 135/158/82 102/159/82 103/160/82
f 135/158/83 117/59/83 100/161/83 102/159/83
f 164/128/84 149/162/84 101/163/84 103/160/84
f 129/164/45 133/165/45 99/166/45 97/167/45
f 161/168/85 162/169/85 98/170/85 96/171/85
f 138/147/31 129/164/31 97/167/31 106/148/31
f 168/143/86 161/168/86 96/171/86 107/144/86
f 155/1/87 87/172/87 95/151/87 143/150/87
f 163/127/88 100/161/88 92/173/88 158/4/88
f 119/157/89 104/156/89 90/174/89 126/175/89
f 162/169/90 157/176/90 91/177/90 98/170/90
f 125/178/91 134/123/91 101/163/91 88/179/91
f 133/165/7 125/180/7 88/181/7 99/166/7
f 151/153/92 105/152/92 91/182/92 157/183/92
f 139/184/4 85/185/4 86/186/4 154/187/4
f 142/188/93 93/189/93 89/190/93 156/191/93
f 109/66/94 87/172/94 92/173/94 112/62/94
f 1/18/95 109/66/95 112/62/95 17/61/95
f 48/36/7 9/35/7 125/180/7 133/165/7
f 9/35/96 60/124/96 134/123/96 125/178/96
f 66/45/97 119/157/97 126/175/97 14/46/97
f 82/136/98 123/192/98 114/154/98 27/131/98 170/130/98
f 20/94/31 34/93/31 129/164/31 138/147/31
f 76/101/99 120/193/99 108/194/99 4/15/99
f 38/92/34 132/195/34 131/196/34 31/100/34
f 18/91/100 21/6/100 127/197/100 137/198/100
f 34/93/45 48/36/45 133/165/45 129/164/45
f 64/118/101 58/60/101 117/59/101 135/158/101
f 63/119/102 64/118/102 135/158/102 118/122/102
f 27/131/103 114/154/103 119/157/103 66/45/103
f 38/92/104 18/91/104 137/198/104 132/195/104
f 10/7/66 20/94/66 138/147/66 110/146/66
f 31/100/105 131/196/105 120/193/105 76/101/105
f 40/70/106 113/105/106 123/192/106 82/136/106
f 90/145/107 107/144/107 122/87/107 126/139/107
f 95/151/108 128/68/108 136/21/108 105/152/108
f 103/160/109 101/163/109 134/123/109 118/122/109
f 96/171/85 98/170/85 116/41/85 115/88/85
f 107/144/110 96/171/110 115/88/110 122/87/110
f 87/172/111 109/66/111 128/68/111 95/151/111
f 100/161/112 117/59/112 112/62/112 92/173/112
f 98/170/113 91/177/113 111/42/113 116/41/113
f 105/152/114 136/21/114 111/24/114 91/182/114
f 85/185/4 124/13/4 108/16/4 86/186/4
f 93/189/115 127/5/115 110/8/115 89/190/115
f 22/199/116 142/188/116 156/191/116 12/200/116
f 6/201/4 139/184/4 154/187/4 8/202/4
f 67/203/117 151/153/117 157/183/117 15/204/117
f 50/51/118 15/50/118 157/176/118 162/169/118
f 57/56/119 163/127/119 158/4/119 19/3/119
f 5/2/120 155/1/120 143/150/120 26/205/120
f 80/83/121 36/82/121 161/168/121 168/143/121
f 39/117/34 159/141/34 145/206/34 32/103/34
f 77/104/122 32/103/122 145/206/122 167/207/122
f 36/82/123 50/51/123 162/169/123 161/168/123
f 61/121/124 59/30/124 149/162/124 164/128/124
f 26/205/125 143/150/125 151/153/125 67/203/125
f 6/135/126 77/104/126 167/207/126 139/208/126
f 16/140/127 80/83/127 168/143/127 141/142/127
f 89/149/66 106/148/66 153/95/66 156/132/66
f 94/155/128 160/76/128 165/52/128 104/156/128
f 103/160/129 102/159/129 150/126/129 164/128/129
f 102/159/130 100/161/130 163/127/130 150/126/130
f 97/167/45 99/166/45 148/25/45 144/96/45
f 106/148/31 97/167/31 144/96/31 153/95/31
f 104/156/131 165/52/131 141/55/131 90/174/131
f 88/179/132 101/163/132 149/162/132 140/209/132
f 99/166/7 88/181/7 140/26/7 148/25/7
f 87/172/133 155/1/133 158/4/133 92/173/133
f 139/208/134 167/207/134 169/72/134 160/76/134
f 159/141/135 169/72/135 167/207/135 145/206/135
f 142/114/136 152/113/136 166/108/136 154/110/136
f 166/108/137 152/113/137 63/210/137 146/112/137
f 160/76/138 94/155/138 85/185/138 139/208/138
f 124/13/139 85/185/139 94/155/139 114/154/139
f 154/110/140 86/186/140 93/189/140 142/114/140
f 127/5/140 93/189/140 86/186/140 108/16/140
f 120/193/141 137/198/141 127/197/141 108/16/141
f 132/195/142 137/198/142 120/193/142 131/196/142
f 123/192/143 113/105/143 130/106/143 121/107/143
f 114/154/144 123/192/144 121/107/144 124/13/144
f 81/73/145 174/74/145 28/75/145 171/211/145 173/212/145 172/213/145
f 28/214/146 174/137/146 68/138/146
f 82/136/147 170/130/147 66/45/147 84/44/147
f 24/34/148 56/63/148 60/124/148 9/35/148
f 140/209/149 149/162/149 59/30/149 11/29/149
o Cube.001
v -1.415961 -0.568698 1.891419
v -1.411658 0.144312 1.822423
v -1.407589 -0.563881 1.202597
v -1.423387 0.120720 1.196991
v -0.944768 -0.568698 1.891419
v -0.940465 0.144312 1.822423
v -0.936396 -0.563881 1.202597
v -0.952193 0.120720 1.196991
v -1.411727 -0.227110 2.009068
v -1.411658 -0.231656 1.060795
v -0.940465 -0.231656 1.060795
v -0.940534 -0.227110 2.009068
v -1.411658 -0.694849 1.523988
v -1.411658 0.231537 1.523988
v -0.940465 -0.694849 1.523988
v -0.940465 0.231537 1.523988
v -0.940465 -0.231656 1.523988
v -1.280827 -0.509284 1.525548
v -1.412184 -0.509851 1.525709
v -1.414794 -0.433327 1.748595
v -1.412226 -0.226118 1.819961
v -1.412184 -0.000810 1.706741
v -1.412184 0.052101 1.525709
v -1.419299 -0.015121 1.327350
v -1.412184 -0.228875 1.244732
v -1.409716 -0.430405 1.330750
v -1.283436 -0.432760 1.748435
v -1.280868 -0.225550 1.819801
v -1.280827 -0.000243 1.706581
v -1.280827 0.052669 1.525548
v -1.287941 -0.014554 1.327189
v -1.280827 -0.228308 1.244572
v -1.278358 -0.429838 1.330590
v -1.280827 -0.228308 1.525548
vt 0.875000 0.750000
vt 0.875000 0.625000
vt 0.875000 0.625000
vt 0.875000 0.750000
vt 0.500000 0.250000
vt 0.625000 0.250000
vt 0.625000 0.500000
vt 0.500000 0.500000
vt 0.500000 0.625000
vt 0.625000 0.625000
vt 0.625000 0.750000
vt 0.500000 0.750000
vt 0.625000 1.000000
vt 0.500000 1.000000
vt 0.125000 0.625000
vt 0.375000 0.625000
vt 0.375000 0.750000
vt 0.125000 0.750000
vt 0.375000 1.000000
vt 0.375000 0.250000
vt 0.375000 0.500000
vt 0.625000 1.000000
vt 0.500000 1.000000
vt 0.375000 1.000000
vt 0.875000 0.500000
vt 0.125000 0.500000
vt 0.375000 0.250000
vt 0.500000 0.250000
vt 0.125000 0.500000
vt 0.125000 0.625000
vt 0.125000 0.625000
vt 0.125000 0.500000
vt 0.125000 0.750000
vt 0.125000 0.750000
vt 0.875000 0.500000
vt 0.875000 0.500000
vt 0.875000 0.625000
vt 0.500000 1.000000
vt 0.375000 1.000000
vt 0.625000 0.250000
vt 0.500000 0.125000
vt 0.625000 0.125000
vt 0.625000 0.250000
vt 0.500000 0.250000
vt 0.375000 0.125000
vt 0.375000 0.250000
vt 0.375000 0.000000
vt 0.500000 0.000000
vt 0.625000 0.000000
vt 0.625000 1.000000
vt 0.875000 0.750000
vn -1.0000 0.0029 0.0009
vn 0.0000 0.3605 -0.9328
vn 1.0000 -0.0001 0.0001
vn 0.0000 0.4490 0.8935
vn 0.0000 -0.9458 0.3247
vn 0.0000 0.9598 0.2805
vn 0.0000 -0.3256 0.9455
vn 1.0000 -0.0061 0.0061
vn 0.0000 -0.3926 -0.9197
vn -1.0000 0.0015 0.0026
vn -0.9999 0.0115 0.0027
vn 1.0000 0.0062 0.0062
vn 0.0000 0.9471 -0.3210
vn 0.0000 -0.9261 -0.3774
vn 0.9997 0.0173 -0.0173
vn -0.9999 -0.0134 -0.0027
vn -0.0035 0.9261 0.3773
vn -0.0045 0.9458 -0.3248
vn 0.0045 -0.9471 0.3208
vn -0.0026 0.3257 -0.9455
vn -0.9995 -0.0324 -0.0024
vn -0.9994 0.0033 0.0347
vn -0.9999 -0.0027 -0.0108
vn -0.9999 -0.0027 -0.0138
vn -0.9997 -0.0173 0.0173
vn -1.0000 -0.0062 -0.0062
vn -1.0000 0.0061 -0.0061
vn -1.0000 0.0001 -0.0001
vn 0.0027 -0.3604 0.9328
vn -0.0006 0.3926 0.9197
vn 0.0008 -0.4490 -0.8935
vn 0.0038 -0.9598 -0.2805
usemtl None
s off
f 176/215/150 188/216/150 197/217/150 196/218/150
f 184/219/151 178/220/151 182/221/151 185/222/151
f 191/223/152 190/224/152 180/225/152 186/226/152
f 186/226/153 180/225/153 176/227/153 183/228/153
f 187/229/154 189/230/154 179/231/154 175/232/154
f 190/224/155 188/216/155 176/215/155 180/225/155
f 179/231/156 186/226/156 183/228/156 175/233/156
f 189/230/157 191/223/157 186/226/157 179/231/157
f 177/234/158 184/219/158 185/222/158 181/235/158
f 183/228/159 176/227/159 196/236/159 195/237/159
f 175/233/160 183/228/160 195/237/160 194/238/160
f 181/235/161 185/222/161 191/223/161 189/230/161
f 182/221/162 178/239/162 188/216/162 190/224/162
f 177/240/163 181/235/163 189/230/163 187/229/163
f 185/222/164 182/221/164 190/224/164 191/223/164
f 184/219/165 177/234/165 200/241/165 199/242/165
f 200/243/166 193/244/166 192/245/166 207/246/166
f 193/244/167 194/247/167 201/248/167 192/245/167
f 197/217/168 198/249/168 205/250/168 204/251/168
f 194/238/169 195/237/169 202/252/169 201/253/169
f 178/220/170 184/219/170 199/242/170 198/254/170
f 188/216/171 178/239/171 198/249/171 197/217/171
f 187/229/172 175/232/172 194/247/172 193/244/172
f 177/240/173 187/229/173 193/244/173 200/243/173
f 208/255/174 204/256/174 205/257/174 206/258/174
f 192/259/175 208/255/175 206/258/175 207/260/175
f 201/261/176 202/262/176 208/255/176 192/259/176
f 202/262/177 203/263/177 204/256/177 208/255/177
f 198/254/178 199/242/178 206/258/178 205/257/178
f 199/242/179 200/241/179 207/260/179 206/258/179
f 195/237/180 196/236/180 203/264/180 202/252/180
f 196/218/181 197/217/181 204/251/181 203/265/181
o Cube.002
v -1.440360 -0.552374 -1.305364
v -1.436058 0.160636 -1.374360
v -1.431988 -0.547557 -1.994186
v -1.447786 0.137044 -1.999792
v -0.969167 -0.552374 -1.305364
v -0.964865 0.160636 -1.374360
v -0.960795 -0.547557 -1.994186
v -0.976593 0.137044 -1.999792
v -1.436126 -0.210787 -1.187715
v -1.436058 -0.215332 -2.135988
v -0.964865 -0.215332 -2.135988
v -0.964933 -0.210787 -1.187715
v -1.436058 -0.678525 -1.672795
v -1.436058 0.247861 -1.672795
v -0.964865 -0.678525 -1.672795
v -0.964865 0.247861 -1.672795
v -0.964865 -0.215332 -1.672795
v -1.305226 -0.492960 -1.671235
v -1.436584 -0.493527 -1.671075
v -1.439194 -0.417003 -1.448188
v -1.436625 -0.209794 -1.376822
v -1.436584 0.015514 -1.490042
v -1.436584 0.068425 -1.671075
v -1.443698 0.001203 -1.869434
v -1.436584 -0.212551 -1.952051
v -1.434115 -0.414081 -1.866033
v -1.307836 -0.416436 -1.448348
v -1.305268 -0.209227 -1.376982
v -1.305226 0.016081 -1.490202
v -1.305226 0.068992 -1.671235
v -1.312341 0.001770 -1.869594
v -1.305226 -0.211984 -1.952211
v -1.302758 -0.413514 -1.866193
v -1.305226 -0.211984 -1.671235
vt 0.875000 0.750000
vt 0.875000 0.625000
vt 0.875000 0.625000
vt 0.875000 0.750000
vt 0.500000 0.250000
vt 0.625000 0.250000
vt 0.625000 0.500000
vt 0.500000 0.500000
vt 0.500000 0.625000
vt 0.625000 0.625000
vt 0.625000 0.750000
vt 0.500000 0.750000
vt 0.625000 1.000000
vt 0.500000 1.000000
vt 0.125000 0.625000
vt 0.375000 0.625000
vt 0.375000 0.750000
vt 0.125000 0.750000
vt 0.375000 1.000000
vt 0.375000 0.250000
vt 0.375000 0.500000
vt 0.625000 1.000000
vt 0.500000 1.000000
vt 0.375000 1.000000
vt 0.875000 0.500000
vt 0.125000 0.500000
vt 0.375000 0.250000
vt 0.500000 0.250000
vt 0.125000 0.500000
vt 0.125000 0.625000
vt 0.125000 0.625000
vt 0.125000 0.500000
vt 0.125000 0.750000
vt 0.125000 0.750000
vt 0.875000 0.500000
vt 0.875000 0.500000
vt 0.875000 0.625000
vt 0.500000 1.000000
vt 0.375000 1.000000
vt 0.625000 0.250000
vt 0.500000 0.125000
vt 0.625000 0.125000
vt 0.625000 0.250000
vt 0.500000 0.250000
vt 0.375000 0.125000
vt 0.375000 0.250000
vt 0.375000 0.000000
vt 0.500000 0.000000
vt 0.625000 0.000000
vt 0.625000 1.000000
vt 0.875000 0.750000
vn -1.0000 0.0029 0.0009
vn 0.0000 0.3605 -0.9328
vn 1.0000 -0.0001 0.0001
vn 0.0000 0.4490 0.8935
vn 0.0000 -0.9458 0.3247
vn 0.0000 0.9598 0.2805
vn 0.0000 -0.3256 0.9455
vn 1.0000 -0.0061 0.0061
vn 0.0000 -0.3926 -0.9197
vn -1.0000 0.0015 0.0026
vn -0.9999 0.0115 0.0027
vn 1.0000 0.0062 0.0062
vn 0.0000 0.9471 -0.3210
vn 0.0000 -0.9261 -0.3774
vn 0.9997 0.0173 -0.0173
vn -0.9999 -0.0134 -0.0027
vn -0.0035 0.9261 0.3773
vn -0.0045 0.9458 -0.3248
vn 0.0045 -0.9471 0.3208
vn -0.0026 0.3257 -0.9455
vn -0.9995 -0.0323 -0.0024
vn -0.9994 0.0033 0.0347
vn -0.9999 -0.0027 -0.0108
vn -0.9999 -0.0027 -0.0138
vn -0.9997 -0.0173 0.0173
vn -1.0000 -0.0062 -0.0062
vn -1.0000 0.0061 -0.0061
vn -1.0000 0.0001 -0.0001
vn 0.0027 -0.3604 0.9328
vn -0.0006 0.3926 0.9197
vn 0.0008 -0.4490 -0.8935
vn 0.0038 -0.9598 -0.2805
usemtl None
s off
f 210/266/182 222/267/182 231/268/182 230/269/182
f 218/270/183 212/271/183 216/272/183 219/273/183
f 225/274/184 224/275/184 214/276/184 220/277/184
f 220/277/185 214/276/185 210/278/185 217/279/185
f 221/280/186 223/281/186 213/282/186 209/283/186
f 224/275/187 222/267/187 210/266/187 214/276/187
f 213/282/188 220/277/188 217/279/188 209/284/188
f 223/281/189 225/274/189 220/277/189 213/282/189
f 211/285/190 218/270/190 219/273/190 215/286/190
f 217/279/191 210/278/191 230/287/191 229/288/191
f 209/284/192 217/279/192 229/288/192 228/289/192
f 215/286/193 219/273/193 225/274/193 223/281/193
f 216/272/194 212/290/194 222/267/194 224/275/194
f 211/291/195 215/286/195 223/281/195 221/280/195
f 219/273/196 216/272/196 224/275/196 225/274/196
f 218/270/197 211/285/197 234/292/197 233/293/197
f 234/294/198 227/295/198 226/296/198 241/297/198
f 227/295/199 228/298/199 235/299/199 226/296/199
f 231/268/200 232/300/200 239/301/200 238/302/200
f 228/289/201 229/288/201 236/303/201 235/304/201
f 212/271/202 218/270/202 233/293/202 232/305/202
f 222/267/203 212/290/203 232/300/203 231/268/203
f 221/280/204 209/283/204 228/298/204 227/295/204
f 211/291/205 221/280/205 227/295/205 234/294/205
f 242/306/206 238/307/206 239/308/206 240/309/206
f 226/310/207 242/306/207 240/309/207 241/311/207
f 235/312/208 236/313/208 242/306/208 226/310/208
f 236/313/209 237/314/209 238/307/209 242/306/209
f 232/305/210 233/293/210 240/309/210 239/308/210
f 233/293/211 234/292/211 241/311/211 240/309/211
f 229/288/212 230/287/212 237/315/212 236/303/212
f 230/269/213 231/268/213 238/302/213 237/316/213
o Cube.003
v 1.412165 -0.534031 -1.305364
v 1.407863 0.178979 -1.374360
v 1.403793 -0.529215 -1.994186
v 1.419591 0.155386 -1.999792
v 0.940972 -0.534031 -1.305364
v 0.936670 0.178979 -1.374360
v 0.932600 -0.529215 -1.994186
v 0.948398 0.155386 -1.999792
v 1.407931 -0.192444 -1.187715
v 1.407863 -0.196989 -2.135988
v 0.936670 -0.196989 -2.135988
v 0.936738 -0.192444 -1.187715
v 1.407863 -0.660182 -1.672795
v 1.407863 0.266204 -1.672795
v 0.936670 -0.660182 -1.672795
v 0.936670 0.266204 -1.672795
v 0.936670 -0.196989 -1.672795
v 1.277031 -0.474617 -1.671235
v 1.408388 -0.475185 -1.671075
v 1.410998 -0.398660 -1.448188
v 1.408430 -0.191451 -1.376822
v 1.408388 0.033857 -1.490042
v 1.408388 0.086768 -1.671075
v 1.415503 0.019545 -1.869434
v 1.408388 -0.194208 -1.952051
v 1.405920 -0.395739 -1.866033
v 1.279641 -0.398093 -1.448348
v 1.277072 -0.190884 -1.376982
v 1.277031 0.034424 -1.490202
v 1.277031 0.087335 -1.671235
v 1.284145 0.020112 -1.869594
v 1.277031 -0.193641 -1.952211
v 1.274562 -0.395171 -1.866193
v 1.277031 -0.193641 -1.671235
vt 0.875000 0.750000
vt 0.875000 0.750000
vt 0.875000 0.625000
vt 0.875000 0.625000
vt 0.500000 0.250000
vt 0.500000 0.500000
vt 0.625000 0.500000
vt 0.625000 0.250000
vt 0.500000 0.625000
vt 0.500000 0.750000
vt 0.625000 0.750000
vt 0.625000 0.625000
vt 0.500000 1.000000
vt 0.625000 1.000000
vt 0.125000 0.625000
vt 0.125000 0.750000
vt 0.375000 0.750000
vt 0.375000 0.625000
vt 0.375000 1.000000
vt 0.375000 0.250000
vt 0.375000 0.500000
vt 0.500000 1.000000
vt 0.625000 1.000000
vt 0.375000 1.000000
vt 0.875000 0.500000
vt 0.125000 0.500000
vt 0.500000 0.250000
vt 0.375000 0.250000
vt 0.125000 0.500000
vt 0.125000 0.500000
vt 0.125000 0.625000
vt 0.125000 0.625000
vt 0.125000 0.750000
vt 0.125000 0.750000
vt 0.875000 0.625000
vt 0.875000 0.500000
vt 0.875000 0.500000
vt 0.375000 1.000000
vt 0.500000 1.000000
vt 0.625000 0.250000
vt 0.500000 0.125000
vt 0.500000 0.250000
vt 0.625000 0.250000
vt 0.625000 0.125000
vt 0.375000 0.125000
vt 0.375000 0.250000
vt 0.375000 0.000000
vt 0.500000 0.000000
vt 0.625000 0.000000
vt 0.625000 1.000000
vt 0.875000 0.750000
vn 1.0000 0.0029 0.0009
vn 0.0000 0.3605 -0.9328
vn -1.0000 -0.0001 0.0001
vn 0.0000 0.4490 0.8935
vn 0.0000 -0.9458 0.3247
vn 0.0000 0.9598 0.2805
vn 0.0000 -0.3256 0.9455
vn -1.0000 -0.0061 0.0061
vn 0.0000 -0.3926 -0.9197
vn 1.0000 0.0015 0.0026
vn 0.9999 0.0115 0.0027
vn -1.0000 0.0062 0.0062
vn 0.0000 0.9471 -0.3210
vn 0.0000 -0.9261 -0.3774
vn -0.9997 0.0173 -0.0173
vn 0.9999 -0.0134 -0.0027
vn 0.0035 0.9261 0.3773
vn 0.0045 0.9458 -0.3248
vn -0.0045 -0.9471 0.3208
vn 0.0026 0.3257 -0.9455
vn 0.9995 -0.0323 -0.0024
vn 0.9994 0.0033 0.0347
vn 0.9999 -0.0027 -0.0108
vn 0.9999 -0.0027 -0.0138
vn 0.9997 -0.0173 0.0173
vn 1.0000 -0.0062 -0.0062
vn 1.0000 0.0061 -0.0061
vn 1.0000 0.0001 -0.0001
vn -0.0027 -0.3604 0.9328
vn 0.0006 0.3926 0.9197
vn -0.0008 -0.4490 -0.8935
vn -0.0038 -0.9598 -0.2805
usemtl None
s off
f 244/317/214 264/318/214 265/319/214 256/320/214
f 252/321/215 253/322/215 250/323/215 246/324/215
f 259/325/216 254/326/216 248/327/216 258/328/216
f 254/326/217 251/329/217 244/330/217 248/327/217
f 255/331/218 243/332/218 247/333/218 257/334/218
f 258/328/219 248/327/219 244/317/219 256/320/219
f 247/333/220 243/335/220 251/329/220 254/326/220
f 257/334/221 247/333/221 254/326/221 259/325/221
f 245/336/222 249/337/222 253/322/222 252/321/222
f 251/329/223 263/338/223 264/339/223 244/330/223
f 243/335/224 262/340/224 263/338/224 251/329/224
f 249/337/225 257/334/225 259/325/225 253/322/225
f 250/323/226 258/328/226 256/320/226 246/341/226
f 245/342/227 255/331/227 257/334/227 249/337/227
f 253/322/228 259/325/228 258/328/228 250/323/228
f 252/321/229 267/343/229 268/344/229 245/336/229
f 268/345/230 275/346/230 260/347/230 261/348/230
f 261/348/231 260/347/231 269/349/231 262/350/231
f 265/319/232 272/351/232 273/352/232 266/353/232
f 262/340/233 269/354/233 270/355/233 263/338/233
f 246/324/234 266/356/234 267/343/234 252/321/234
f 256/320/235 265/319/235 266/353/235 246/341/235
f 255/331/236 261/348/236 262/350/236 243/332/236
f 245/342/237 268/345/237 261/348/237 255/331/237
f 276/357/238 274/358/238 273/359/238 272/360/238
f 260/361/239 275/362/239 274/358/239 276/357/239
f 269/363/240 260/361/240 276/357/240 270/364/240
f 270/364/241 276/357/241 272/360/241 271/365/241
f 266/356/242 273/359/242 274/358/242 267/343/242
f 267/343/243 274/358/243 275/362/243 268/344/243
f 263/338/244 270/355/244 271/366/244 264/339/244
f 264/318/245 271/367/245 272/351/245 265/319/245
o Cube.004
v 1.412165 -0.564574 1.921962
v 1.407863 0.148436 1.852966
v 1.403793 -0.559757 1.233140
v 1.419591 0.124844 1.227533
v 0.940972 -0.564574 1.921962
v 0.936670 0.148436 1.852966
v 0.932600 -0.559757 1.233140
v 0.948398 0.124844 1.227533
v 1.407931 -0.222986 2.039610
v 1.407863 -0.227532 1.091338
v 0.936670 -0.227532 1.091338
v 0.936738 -0.222986 2.039610
v 1.407863 -0.690725 1.554531
v 1.407863 0.235661 1.554531
v 0.936670 -0.690725 1.554531
v 0.936670 0.235661 1.554531
v 0.936670 -0.227532 1.554531
v 1.277031 -0.505160 1.556091
v 1.408388 -0.505727 1.556251
v 1.410998 -0.429203 1.779138
v 1.408430 -0.221994 1.850504
v 1.408388 0.003314 1.737284
v 1.408388 0.056225 1.556251
v 1.415503 -0.010997 1.357892
v 1.408388 -0.224751 1.275275
v 1.405920 -0.426281 1.361293
v 1.279641 -0.428636 1.778977
v 1.277072 -0.221426 1.850344
v 1.277031 0.003881 1.737124
v 1.277031 0.056793 1.556091
v 1.284145 -0.010430 1.357732
v 1.277031 -0.224184 1.275115
v 1.274562 -0.425714 1.361133
v 1.277031 -0.224184 1.556091
vt 0.875000 0.750000
vt 0.875000 0.750000
vt 0.875000 0.625000
vt 0.875000 0.625000
vt 0.500000 0.250000
vt 0.500000 0.500000
vt 0.625000 0.500000
vt 0.625000 0.250000
vt 0.500000 0.625000
vt 0.500000 0.750000
vt 0.625000 0.750000
vt 0.625000 0.625000
vt 0.500000 1.000000
vt 0.625000 1.000000
vt 0.125000 0.625000
vt 0.125000 0.750000
vt 0.375000 0.750000
vt 0.375000 0.625000
vt 0.375000 1.000000
vt 0.375000 0.250000
vt 0.375000 0.500000
vt 0.500000 1.000000
vt 0.625000 1.000000
vt 0.375000 1.000000
vt 0.875000 0.500000
vt 0.125000 0.500000
vt 0.500000 0.250000
vt 0.375000 0.250000
vt 0.125000 0.500000
vt 0.125000 0.500000
vt 0.125000 0.625000
vt 0.125000 0.625000
vt 0.125000 0.750000
vt 0.125000 0.750000
vt 0.875000 0.625000
vt 0.875000 0.500000
vt 0.875000 0.500000
vt 0.375000 1.000000
vt 0.500000 1.000000
vt 0.625000 0.250000
vt 0.500000 0.125000
vt 0.500000 0.250000
vt 0.625000 0.250000
vt 0.625000 0.125000
vt 0.375000 0.125000
vt 0.375000 0.250000
vt 0.375000 0.000000
vt 0.500000 0.000000
vt 0.625000 0.000000
vt 0.625000 1.000000
vt 0.875000 0.750000
vn 1.0000 0.0029 0.0009
vn 0.0000 0.3605 -0.9328
vn -1.0000 -0.0001 0.0001
vn 0.0000 0.4490 0.8935
vn 0.0000 -0.9458 0.3247
vn 0.0000 0.9598 0.2805
vn 0.0000 -0.3256 0.9455
vn -1.0000 -0.0061 0.0061
vn 0.0000 -0.3926 -0.9197
vn 1.0000 0.0015 0.0026
vn 0.9999 0.0115 0.0027
vn -1.0000 0.0062 0.0062
vn 0.0000 0.9471 -0.3210
vn 0.0000 -0.9261 -0.3774
vn -0.9997 0.0173 -0.0173
vn 0.9999 -0.0134 -0.0027
vn 0.0035 0.9261 0.3773
vn 0.0045 0.9458 -0.3248
vn -0.0045 -0.9471 0.3208
vn 0.0026 0.3257 -0.9455
vn 0.9995 -0.0323 -0.0024
vn 0.9994 0.0033 0.0347
vn 0.9999 -0.0027 -0.0108
vn 0.9999 -0.0027 -0.0138
vn 0.9997 -0.0173 0.0173
vn 1.0000 -0.0062 -0.0062
vn 1.0000 0.0061 -0.0061
vn 1.0000 0.0001 -0.0001
vn -0.0027 -0.3604 0.9328
vn 0.0006 0.3926 0.9197
vn -0.0008 -0.4490 -0.8935
vn -0.0038 -0.9598 -0.2805
usemtl None
s off
f 278/368/246 298/369/246 299/370/246 290/371/246
f 286/372/247 287/373/247 284/374/247 280/375/247
f 293/376/248 288/377/248 282/378/248 292/379/248
f 288/377/249 285/380/249 278/381/249 282/378/249
f 289/382/250 277/383/250 281/384/250 291/385/250
f 292/379/251 282/378/251 278/368/251 290/371/251
f 281/384/252 277/386/252 285/380/252 288/377/252
f 291/385/253 281/384/253 288/377/253 293/376/253
f 279/387/254 283/388/254 287/373/254 286/372/254
f 285/380/255 297/389/255 298/390/255 278/381/255
f 277/386/256 296/391/256 297/389/256 285/380/256
f 283/388/257 291/385/257 293/376/257 287/373/257
f 284/374/258 292/379/258 290/371/258 280/392/258
f 279/393/259 289/382/259 291/385/259 283/388/259
f 287/373/260 293/376/260 292/379/260 284/374/260
f 286/372/261 301/394/261 302/395/261 279/387/261
f 302/396/262 309/397/262 294/398/262 295/399/262
f 295/399/263 294/398/263 303/400/263 296/401/263
f 299/370/264 306/402/264 307/403/264 300/404/264
f 296/391/265 303/405/265 304/406/265 297/389/265
f 280/375/266 300/407/266 301/394/266 286/372/266
f 290/371/267 299/370/267 300/404/267 280/392/267
f 289/382/268 295/399/268 296/401/268 277/383/268
f 279/393/269 302/396/269 295/399/269 289/382/269
f 310/408/270 308/409/270 307/410/270 306/411/270
f 294/412/271 309/413/271 308/409/271 310/408/271
f 303/414/272 294/412/272 310/408/272 304/415/272
f 304/415/273 310/408/273 306/411/273 305/416/273
f 300/407/274 307/410/274 308/409/274 301/394/274
f 301/394/275 308/409/275 309/413/275 302/395/275
f 297/389/276 304/406/276 305/417/276 298/390/276
f 298/369/277 305/418/277 306/402/277 299/370/277
